sim/transcript
# //  Questa Sim-64
# //  Version 2025.1_1 linux_x86_64 Feb 13 2025
# //
# // Unpublished work. Copyright 2025 Siemens
# //
# // This material contains trade secrets or otherwise confidential information
# // owned by Siemens Industry Software Inc. or its affiliates (collectively,
# // "SISW"), or its licensors. Access to and use of this information is strictly
# // limited as set forth in the Customer's applicable agreements with SISW.
# //
# // This material may not be copied, distributed, or otherwise disclosed outside
# // of the Customer's facilities without the express written permission of SISW,
# // and may not be used in any way not expressly authorized by SISW.
# //
# vsim -voptargs="+acc" -do "add wave -r /*; log -r *; run -all" work.tb_top 
# Start time: 16:33:19 on Mar 17,2026
# ** Note: (vsim-8009) Loading existing optimized design _opt
# Loading sv_std.std
# Loading work.defines(fast)
# Loading work.tb_top_sv_unit(fast)
# Loading work.tb_top(fast)
# Loading work.top_sv_unit(fast)
# Loading work.top(fast)
# Loading work.control_unit(fast)
# Loading work.fetch(fast)
# Loading work.decode_sv_unit(fast)
# Loading work.decode(fast)
# Loading work.execute_sv_unit(fast)
# Loading work.execute(fast)
# Loading work.memory_sv_unit(fast)
# Loading work.memory(fast)
# Loading work.write_back_sv_unit(fast)
# Loading work.write_back(fast)
# add wave -r /*
#  log -r *
#  run -all
# ==================================================
#    STARTING CONTROL HAZARD (BRANCH) TEST
# ==================================================
# Time: 20000 | IF_PC: 00 | EX_OPC: 00 | EX_ALU_OUT:   0 | Sqsh_ID: 0 | Sqsh_EX: 0
# Time: 35000 | IF_PC: 04 | EX_OPC: 00 | EX_ALU_OUT:   0 | Sqsh_ID: 1 | Sqsh_EX: 1
# Time: 45000 | IF_PC: 08 | EX_OPC: 00 | EX_ALU_OUT:   0 | Sqsh_ID: 0 | Sqsh_EX: 0
# Time: 55000 | IF_PC: 10 | EX_OPC: 00 | EX_ALU_OUT:   0 | Sqsh_ID: 0 | Sqsh_EX: 0
# Time: 65000 | IF_PC: 14 | EX_OPC: 00 | EX_ALU_OUT: 200 | Sqsh_ID: 0 | Sqsh_EX: 0
# Time: 75000 | IF_PC: 18 | EX_OPC: 00 | EX_ALU_OUT:   0 | Sqsh_ID: 0 | Sqsh_EX: 0
# Time: 85000 | IF_PC: 1c | EX_OPC: 00 | EX_ALU_OUT:   0 | Sqsh_ID: 0 | Sqsh_EX: 0
# Time: 95000 | IF_PC: 20 | EX_OPC: 00 | EX_ALU_OUT:   0 | Sqsh_ID: 0 | Sqsh_EX: 0
# Time: 105000 | IF_PC: 24 | EX_OPC: 00 | EX_ALU_OUT:   0 | Sqsh_ID: 0 | Sqsh_EX: 0
# Time: 115000 | IF_PC: 28 | EX_OPC: 00 | EX_ALU_OUT:   0 | Sqsh_ID: 0 | Sqsh_EX: 0
# Time: 125000 | IF_PC: 2c | EX_OPC: 00 | EX_ALU_OUT:   0 | Sqsh_ID: 0 | Sqsh_EX: 0
# Time: 135000 | IF_PC: 30 | EX_OPC: 00 | EX_ALU_OUT:   0 | Sqsh_ID: 0 | Sqsh_EX: 0
# Time: 145000 | IF_PC: 34 | EX_OPC: 00 | EX_ALU_OUT:   0 | Sqsh_ID: 0 | Sqsh_EX: 0
# Time: 155000 | IF_PC: 38 | EX_OPC: 00 | EX_ALU_OUT:   0 | Sqsh_ID: 0 | Sqsh_EX: 0
# Time: 165000 | IF_PC: 3c | EX_OPC: 00 | EX_ALU_OUT:   0 | Sqsh_ID: 0 | Sqsh_EX: 0
# ==================================================
# Test Complete.
# ** Note: $finish    : ../sim/tb_top.sv(160)
#    Time: 170 ns  Iteration: 0  Instance: /tb_top
# 1
# Break in Module tb_top at ../sim/tb_top.sv line 160
add wave -position insertpoint sim:/tb_top/u_top/*
